
 ************************
 DateTime : 2018-01-03 09:11:32
 Message : yii\base\ErrorException: Trying to get property of non-object in /app/api_ver4/controllers/TestController.php:194
Stack trace:
#0 /app/api_ver4/controllers/TestController.php(194): yii\base\ErrorHandler->handleError(8, 'Trying to get p...', '/app/api_ver4/c...', 194, Array)
#1 [internal function]: api_ver4\controllers\TestController->actionArtisthomescreen()
#2 /app/vendor/yiisoft/yii2/base/InlineAction.php(55): call_user_func_array(Array, Array)
#3 /app/vendor/yiisoft/yii2/base/Controller.php(151): yii\base\InlineAction->runWithParams(Array)
#4 /app/vendor/yiisoft/yii2/base/Module.php(455): yii\base\Controller->runAction('artisthomescree...', Array)
#5 /app/vendor/yiisoft/yii2/web/Application.php(84): yii\base\Module->runAction('test/artisthome...', Array)
#6 /app/vendor/yiisoft/yii2/base/Application.php(375): yii\web\Application->handleRequest(Object(yii\web\Request))
#7 /app/api_ver4/web/index.php(21): yii\base\Application->run()
#8 {main}
 Data: 
 Params : {"ArtistID"=1,"UserType"=2,"PageIndex"=1,"Language"='english'}\n