
 ************************
 DateTime : 2018-01-05 15:06:00
 Message : yii\base\ErrorException: Undefined variable: dependency_activity in /app/api_ver4/controllers/UserController.php:1291
Stack trace:
#0 /app/api_ver4/controllers/UserController.php(1291): yii\base\ErrorHandler->handleError(8, 'Undefined varia...', '/app/api_ver4/c...', 1291, Array)
#1 [internal function]: api_ver4\controllers\UserController->actionArtisthomescreen()
#2 /app/vendor/yiisoft/yii2/base/InlineAction.php(55): call_user_func_array(Array, Array)
#3 /app/vendor/yiisoft/yii2/base/Controller.php(151): yii\base\InlineAction->runWithParams(Array)
#4 /app/vendor/yiisoft/yii2/base/Module.php(455): yii\base\Controller->runAction('artisthomescree...', Array)
#5 /app/vendor/yiisoft/yii2/web/Application.php(84): yii\base\Module->runAction('user/artisthome...', Array)
#6 /app/vendor/yiisoft/yii2/base/Application.php(375): yii\web\Application->handleRequest(Object(yii\web\Request))
#7 /app/api_ver4/web/index.php(21): yii\base\Application->run()
#8 {main}
 Data: 
 Params : {"ArtistID":"1","UserType":2,"PageIndex":"1","Language":"english"}\n
 Artist Home News Feed : CALL Artist_Home_News_Feed_API3(1,'http://d1t89cp2y0xf79.cloudfront.net','http://d1t89cp2y0xf79.cloudfront.net/boom-','/profileimages/thumb/','/stickerimages/',1,30)\n
 ************************
 DateTime : 2018-01-05 15:06:00
 Message : yii\base\ErrorException: Undefined variable: dependency_activity in /app/api_ver4/controllers/UserController.php:1291
Stack trace:
#0 /app/api_ver4/controllers/UserController.php(1291): yii\base\ErrorHandler->handleError(8, 'Undefined varia...', '/app/api_ver4/c...', 1291, Array)
#1 [internal function]: api_ver4\controllers\UserController->actionArtisthomescreen()
#2 /app/vendor/yiisoft/yii2/base/InlineAction.php(55): call_user_func_array(Array, Array)
#3 /app/vendor/yiisoft/yii2/base/Controller.php(151): yii\base\InlineAction->runWithParams(Array)
#4 /app/vendor/yiisoft/yii2/base/Module.php(455): yii\base\Controller->runAction('artisthomescree...', Array)
#5 /app/vendor/yiisoft/yii2/web/Application.php(84): yii\base\Module->runAction('user/artisthome...', Array)
#6 /app/vendor/yiisoft/yii2/base/Application.php(375): yii\web\Application->handleRequest(Object(yii\web\Request))
#7 /app/api_ver4/web/index.php(21): yii\base\Application->run()
#8 {main}
 Data: 
 Params : {"ArtistID":"1","UserType":2,"PageIndex":"1","Language":"english"}\n
 Artist Home News Feed : CALL Artist_Home_News_Feed_API3(1,'http://d1t89cp2y0xf79.cloudfront.net','http://d1t89cp2y0xf79.cloudfront.net/boom-','/profileimages/thumb/','/stickerimages/',1,30)\n