
 ************************
 DateTime : 2018-01-03 11:50:17
 Message : yii\base\ErrorException: Trying to get property of non-object in /app/api_ver4/controllers/TestController.php:225
Stack trace:
#0 /app/api_ver4/controllers/TestController.php(225): yii\base\ErrorHandler->handleError(8, 'Trying to get p...', '/app/api_ver4/c...', 225, Array)
#1 [internal function]: api_ver4\controllers\TestController->actionLogin()
#2 /app/vendor/yiisoft/yii2/base/InlineAction.php(55): call_user_func_array(Array, Array)
#3 /app/vendor/yiisoft/yii2/base/Controller.php(151): yii\base\InlineAction->runWithParams(Array)
#4 /app/vendor/yiisoft/yii2/base/Module.php(455): yii\base\Controller->runAction('login', Array)
#5 /app/vendor/yiisoft/yii2/web/Application.php(84): yii\base\Module->runAction('test/login', Array)
#6 /app/vendor/yiisoft/yii2/base/Application.php(375): yii\web\Application->handleRequest(Object(yii\web\Request))
#7 /app/api_ver4/web/index.php(21): yii\base\Application->run()
#8 {main}
 Data: 
 Params : {'Username':'kate','Password':'boom2012','DeviceType':2,'DeviceToken':'fkCqdprxNds:APA91bHYAj2fNpiQXORXoAg6_xymhJ_RwR-LjH4uIHCknJ5oUfA86vSxTk3fVrKa3ADFiZSbK5boK3VdjLNqkuH_PTaGmQpP5QNRGTTNBS8w5syt3ddbFUXP-XJ7-sG-_YFJ5xbGVKv5','UserType':3,'ArtistID':1,'LoginType':1,'MemberName':'Kate','Email':'','Language':'english','IsQa':0,'QaName':'','QaType':'','ComID':0}\n