
 ************************
 DateTime : 2018-01-02 13:03:00
 Message : yii\base\ErrorException: Undefined variable: artist in /app/api_ver4/controllers/UserController.php:471
Stack trace:
#0 /app/api_ver4/controllers/UserController.php(471): yii\base\ErrorHandler->handleError(8, 'Undefined varia...', '/app/api_ver4/c...', 471, Array)
#1 [internal function]: api_ver4\controllers\UserController->actionPostlist()
#2 /app/vendor/yiisoft/yii2/base/InlineAction.php(55): call_user_func_array(Array, Array)
#3 /app/vendor/yiisoft/yii2/base/Controller.php(151): yii\base\InlineAction->runWithParams(Array)
#4 /app/vendor/yiisoft/yii2/base/Module.php(455): yii\base\Controller->runAction('postlist', Array)
#5 /app/vendor/yiisoft/yii2/web/Application.php(84): yii\base\Module->runAction('user/postlist', Array)
#6 /app/vendor/yiisoft/yii2/base/Application.php(375): yii\web\Application->handleRequest(Object(yii\web\Request))
#7 /app/api_ver4/web/index.php(21): yii\base\Application->run()
#8 {main}
 Data: 
 Params : {"UserID":2,"UserType":2,"ProfileID":"1","ArtistID":"1","IsExclusive":"0","PageIndex":"1","Language":"en"}\n
 Post Image List : CALL Post_List_API3(0, 1,2,1,0,0,'http://d1t89cp2y0xf79.cloudfront.net/boom-','/thumb/','/postvideos/blurthumb/',1,20)\n
 ************************
 DateTime : 2018-01-02 13:03:00
 Message : yii\base\ErrorException: Undefined variable: artist in /app/api_ver4/controllers/UserController.php:471
Stack trace:
#0 /app/api_ver4/controllers/UserController.php(471): yii\base\ErrorHandler->handleError(8, 'Undefined varia...', '/app/api_ver4/c...', 471, Array)
#1 [internal function]: api_ver4\controllers\UserController->actionPostlist()
#2 /app/vendor/yiisoft/yii2/base/InlineAction.php(55): call_user_func_array(Array, Array)
#3 /app/vendor/yiisoft/yii2/base/Controller.php(151): yii\base\InlineAction->runWithParams(Array)
#4 /app/vendor/yiisoft/yii2/base/Module.php(455): yii\base\Controller->runAction('postlist', Array)
#5 /app/vendor/yiisoft/yii2/web/Application.php(84): yii\base\Module->runAction('user/postlist', Array)
#6 /app/vendor/yiisoft/yii2/base/Application.php(375): yii\web\Application->handleRequest(Object(yii\web\Request))
#7 /app/api_ver4/web/index.php(21): yii\base\Application->run()
#8 {main}
 Data: 
 Params : {"UserID":2,"UserType":2,"ProfileID":"1","ArtistID":"1","IsExclusive":"0","PageIndex":"1","Language":"en"}\n
 Post Image List : CALL Post_List_API3(0, 1,2,1,0,0,'http://d1t89cp2y0xf79.cloudfront.net/boom-','/thumb/','/postvideos/blurthumb/',1,20)\n