
 ************************
 DateTime : 2018-01-04 12:50:04
 Message : yii\base\ErrorException: Undefined property: stdClass::$ArtistID in /app/api_ver4/controllers/UserController.php:883
Stack trace:
#0 /app/api_ver4/controllers/UserController.php(883): yii\base\ErrorHandler->handleError(8, 'Undefined prope...', '/app/api_ver4/c...', 883, Array)
#1 [internal function]: api_ver4\controllers\UserController->actionPostlist()
#2 /app/vendor/yiisoft/yii2/base/InlineAction.php(55): call_user_func_array(Array, Array)
#3 /app/vendor/yiisoft/yii2/base/Controller.php(151): yii\base\InlineAction->runWithParams(Array)
#4 /app/vendor/yiisoft/yii2/base/Module.php(455): yii\base\Controller->runAction('postlist', Array)
#5 /app/vendor/yiisoft/yii2/web/Application.php(84): yii\base\Module->runAction('user/postlist', Array)
#6 /app/vendor/yiisoft/yii2/base/Application.php(375): yii\web\Application->handleRequest(Object(yii\web\Request))
#7 /app/api_ver4/web/index.php(21): yii\base\Application->run()
#8 {main}
 Data: 
 Params : {"UserID":5,"UserType":3,"ProfileID":"3","Language":"en"}\n