
 ************************
 DateTime : 2018-01-02 13:07:14
 Message : yii\base\ErrorException: Trying to get property of non-object in /app/api_ver4/controllers/UserController.php:473
Stack trace:
#0 /app/api_ver4/controllers/UserController.php(473): yii\base\ErrorHandler->handleError(8, 'Trying to get p...', '/app/api_ver4/c...', 473, Array)
#1 [internal function]: api_ver4\controllers\UserController->actionPostlist()
#2 /app/vendor/yiisoft/yii2/base/InlineAction.php(55): call_user_func_array(Array, Array)
#3 /app/vendor/yiisoft/yii2/base/Controller.php(151): yii\base\InlineAction->runWithParams(Array)
#4 /app/vendor/yiisoft/yii2/base/Module.php(455): yii\base\Controller->runAction('postlist', Array)
#5 /app/vendor/yiisoft/yii2/web/Application.php(84): yii\base\Module->runAction('user/postlist', Array)
#6 /app/vendor/yiisoft/yii2/base/Application.php(375): yii\web\Application->handleRequest(Object(yii\web\Request))
#7 /app/api_ver4/web/index.php(21): yii\base\Application->run()
#8 {main}
 Data: 
 Params : {"UserID":2,"UserType":2,"ProfileID":"1","ArtistID":"1","IsExclusive":"0","PageIndex":"1","Language":"en"}\n
 Post Image List : CALL Post_List_API3(0, 1,2,1,0,0,'http://d1t89cp2y0xf79.cloudfront.net/boom-','/thumb/','/postvideos/blurthumb/',1,20)\n
 Post Image List : CALL Post_Image_List(1,35004,1,'http://d1t89cp2y0xf79.cloudfront.net/boom-','/postimages/','/postimages/thumb/','/postimages/medium/')\n
 Post Image List : CALL Post_Image_List(1,31661,1,'http://d1t89cp2y0xf79.cloudfront.net/boom-','/postimages/','/postimages/thumb/','/postimages/medium/')\n
 Post Image List : CALL Post_Image_List(1,31645,1,'http://d1t89cp2y0xf79.cloudfront.net/boom-','/postimages/','/postimages/thumb/','/postimages/medium/')\n
 Post Image List : CALL Post_Image_List(1,31643,1,'http://d1t89cp2y0xf79.cloudfront.net/boom-','/postimages/','/postimages/thumb/','/postimages/medium/')\n
 Post Image List : CALL Post_Image_List(1,31489,1,'http://d1t89cp2y0xf79.cloudfront.net/boom-','/postimages/','/postimages/thumb/','/postimages/medium/')\n
 Post Image List : CALL Post_Image_List(1,25921,1,'http://d1t89cp2y0xf79.cloudfront.net/boom-','/postimages/','/postimages/thumb/','/postimages/medium/')\n
 Post Image List : CALL Post_Image_List(1,25522,1,'http://d1t89cp2y0xf79.cloudfront.net/boom-','/postimages/','/postimages/thumb/','/postimages/medium/')\n
 Post Image List : CALL Post_Image_List(1,25422,1,'http://d1t89cp2y0xf79.cloudfront.net/boom-','/postimages/','/postimages/thumb/','/postimages/medium/')\n
 Post Image List : CALL Post_Image_List(1,25421,1,'http://d1t89cp2y0xf79.cloudfront.net/boom-','/postimages/','/postimages/thumb/','/postimages/medium/')\n
 Post Image List : CALL Post_Image_List(1,25406,1,'http://d1t89cp2y0xf79.cloudfront.net/boom-','/postimages/','/postimages/thumb/','/postimages/medium/')\n
 ************************
 DateTime : 2018-01-02 13:07:14
 Message : yii\base\ErrorException: Trying to get property of non-object in /app/api_ver4/controllers/UserController.php:473
Stack trace:
#0 /app/api_ver4/controllers/UserController.php(473): yii\base\ErrorHandler->handleError(8, 'Trying to get p...', '/app/api_ver4/c...', 473, Array)
#1 [internal function]: api_ver4\controllers\UserController->actionPostlist()
#2 /app/vendor/yiisoft/yii2/base/InlineAction.php(55): call_user_func_array(Array, Array)
#3 /app/vendor/yiisoft/yii2/base/Controller.php(151): yii\base\InlineAction->runWithParams(Array)
#4 /app/vendor/yiisoft/yii2/base/Module.php(455): yii\base\Controller->runAction('postlist', Array)
#5 /app/vendor/yiisoft/yii2/web/Application.php(84): yii\base\Module->runAction('user/postlist', Array)
#6 /app/vendor/yiisoft/yii2/base/Application.php(375): yii\web\Application->handleRequest(Object(yii\web\Request))
#7 /app/api_ver4/web/index.php(21): yii\base\Application->run()
#8 {main}
 Data: 
 Params : {"UserID":2,"UserType":2,"ProfileID":"1","ArtistID":"1","IsExclusive":"0","PageIndex":"1","Language":"en"}\n
 Post Image List : CALL Post_List_API3(0, 1,2,1,0,0,'http://d1t89cp2y0xf79.cloudfront.net/boom-','/thumb/','/postvideos/blurthumb/',1,20)\n
 Post Image List : CALL Post_Image_List(1,35004,1,'http://d1t89cp2y0xf79.cloudfront.net/boom-','/postimages/','/postimages/thumb/','/postimages/medium/')\n
 Post Image List : CALL Post_Image_List(1,31661,1,'http://d1t89cp2y0xf79.cloudfront.net/boom-','/postimages/','/postimages/thumb/','/postimages/medium/')\n
 Post Image List : CALL Post_Image_List(1,31645,1,'http://d1t89cp2y0xf79.cloudfront.net/boom-','/postimages/','/postimages/thumb/','/postimages/medium/')\n
 Post Image List : CALL Post_Image_List(1,31643,1,'http://d1t89cp2y0xf79.cloudfront.net/boom-','/postimages/','/postimages/thumb/','/postimages/medium/')\n
 Post Image List : CALL Post_Image_List(1,31489,1,'http://d1t89cp2y0xf79.cloudfront.net/boom-','/postimages/','/postimages/thumb/','/postimages/medium/')\n
 Post Image List : CALL Post_Image_List(1,25921,1,'http://d1t89cp2y0xf79.cloudfront.net/boom-','/postimages/','/postimages/thumb/','/postimages/medium/')\n
 Post Image List : CALL Post_Image_List(1,25522,1,'http://d1t89cp2y0xf79.cloudfront.net/boom-','/postimages/','/postimages/thumb/','/postimages/medium/')\n
 Post Image List : CALL Post_Image_List(1,25422,1,'http://d1t89cp2y0xf79.cloudfront.net/boom-','/postimages/','/postimages/thumb/','/postimages/medium/')\n
 Post Image List : CALL Post_Image_List(1,25421,1,'http://d1t89cp2y0xf79.cloudfront.net/boom-','/postimages/','/postimages/thumb/','/postimages/medium/')\n
 Post Image List : CALL Post_Image_List(1,25406,1,'http://d1t89cp2y0xf79.cloudfront.net/boom-','/postimages/','/postimages/thumb/','/postimages/medium/')\n