
 ************************
 DateTime : 2018-01-09 08:14:39
 Message : yii\base\ErrorException: Cannot modify header information - headers already sent by (output started at /app/api_ver4/controllers/UserController.php:949) in /app/api_ver4/controllers/UserController.php:199
Stack trace:
#0 [internal function]: yii\base\ErrorHandler->handleError(2, 'Cannot modify h...', '/app/api_ver4/c...', 199, Array)
#1 /app/api_ver4/controllers/UserController.php(199): header('HTTP/1.1400 ')
#2 /app/api_ver4/controllers/UserController.php(1165): api_ver4\controllers\UserController->setHeader(400)
#3 [internal function]: api_ver4\controllers\UserController->actionPostlist()
#4 /app/vendor/yiisoft/yii2/base/InlineAction.php(55): call_user_func_array(Array, Array)
#5 /app/vendor/yiisoft/yii2/base/Controller.php(151): yii\base\InlineAction->runWithParams(Array)
#6 /app/vendor/yiisoft/yii2/base/Module.php(455): yii\base\Controller->runAction('postlist', Array)
#7 /app/vendor/yiisoft/yii2/web/Application.php(84): yii\base\Module->runAction('user/postlist', Array)
#8 /app/vendor/yiisoft/yii2/base/Application.php(375): yii\web\Application->handleRequest(Object(yii\web\Request))
#9 /app/api_ver4/web/index.php(21): yii\base\Application->run()
#10 {main}
 Data: 
 Params : {"UserID":23,"UserType":3,"ProfileID":"21","ArtistID":"1","IsExclusive":"0","PageIndex":"1","Language":"english"}\n
 Post Image List : CALL Post_List_API3(0, 1,23,21,0,0,'http://d1t89cp2y0xf79.cloudfront.net/boom-','/thumb/','/postvideos/blurthumb/',1,20)\n
 Post Image List : CALL Post_Image_List(1,35004,1,'http://d1t89cp2y0xf79.cloudfront.net/boom-','/postimages/','/postimages/thumb/','/postimages/medium/')\n
 Post Image List : CALL Post_Image_List(1,31661,1,'http://d1t89cp2y0xf79.cloudfront.net/boom-','/postimages/','/postimages/thumb/','/postimages/medium/')\n
 Post Image List : CALL Post_Image_List(1,31645,1,'http://d1t89cp2y0xf79.cloudfront.net/boom-','/postimages/','/postimages/thumb/','/postimages/medium/')\n
 Post Image List : CALL Post_Image_List(1,31643,1,'http://d1t89cp2y0xf79.cloudfront.net/boom-','/postimages/','/postimages/thumb/','/postimages/medium/')\n
 Post Image List : CALL Post_Image_List(1,31489,1,'http://d1t89cp2y0xf79.cloudfront.net/boom-','/postimages/','/postimages/thumb/','/postimages/medium/')\n
 Post Image List : CALL Post_Image_List(1,25921,1,'http://d1t89cp2y0xf79.cloudfront.net/boom-','/postimages/','/postimages/thumb/','/postimages/medium/')\n
 Post Image List : CALL Post_Image_List(1,25522,1,'http://d1t89cp2y0xf79.cloudfront.net/boom-','/postimages/','/postimages/thumb/','/postimages/medium/')\n